\relax 
\providecommand\hyper@newdestlabel[2]{}
\providecommand\HyperFirstAtBeginDocument{\AtBeginDocument}
\HyperFirstAtBeginDocument{\ifx\hyper@anchor\@undefined
\global\let\oldcontentsline\contentsline
\gdef\contentsline#1#2#3#4{\oldcontentsline{#1}{#2}{#3}}
\global\let\oldnewlabel\newlabel
\gdef\newlabel#1#2{\newlabelxx{#1}#2}
\gdef\newlabelxx#1#2#3#4#5#6{\oldnewlabel{#1}{{#2}{#3}}}
\AtEndDocument{\ifx\hyper@anchor\@undefined
\let\contentsline\oldcontentsline
\let\newlabel\oldnewlabel
\fi}
\fi}
\global\let\hyper@last\relax 
\gdef\HyperFirstAtBeginDocument#1{#1}
\providecommand\HyField@AuxAddToFields[1]{}
\providecommand\HyField@AuxAddToCoFields[2]{}
\catcode`"\active
\citation{10.3389/fncir.2016.00023}
\citation{DBLP:journals/corr/LavinA15}
\citation{DBLP:journals/corr/Purdy16}
\citation{*}
\bibstyle{unsrt}
\bibdata{sample}
\bibcite{10.3389/fncir.2016.00023}{\hyperlink {beamerbib10.3389/fncir.2016.00023}{1}}
\bibcite{DBLP:journals/corr/LavinA15}{\hyperlink {beamerbibDBLP:journals/corr/LavinA15}{2}}
\bibcite{DBLP:journals/corr/Purdy16}{\hyperlink {beamerbibDBLP:journals/corr/Purdy16}{3}}
\@writefile{toc}{\beamer@endinputifotherversion {3.36pt}}
\@writefile{nav}{\beamer@endinputifotherversion {3.36pt}}
\pgfsyspdfmark {pgfid7}{5456674}{101905479}
\pgfsyspdfmark {pgfid11}{60928813}{133161631}
\pgfsyspdfmark {pgfid12}{116400952}{133161631}
\pgfsyspdfmark {pgfid19}{60928813}{20088465}
\pgfsyspdfmark {pgfid20}{116400952}{20088465}
\pgfsyspdfmark {pgfid21}{171873091}{133326623}
\pgfsyspdfmark {pgfid22}{171873091}{88562092}
\pgfsyspdfmark {pgfid23}{171873091}{73101395}
\pgfsyspdfmark {pgfid24}{171873091}{30027183}
\@writefile{nav}{\headcommand {\slideentry {0}{0}{1}{1/1}{}{0}}}
\@writefile{nav}{\headcommand {\beamer@framepages {1}{1}}}
\@writefile{nav}{\headcommand {\beamer@partpages {1}{1}}}
\@writefile{nav}{\headcommand {\beamer@subsectionpages {1}{1}}}
\@writefile{nav}{\headcommand {\beamer@sectionpages {1}{1}}}
\@writefile{nav}{\headcommand {\beamer@documentpages {1}}}
\@writefile{nav}{\headcommand {\def \inserttotalframenumber {1}}}
